{
    "epsilons": [0.1, 0.05],
    "weights": [-1, -1],
    "max_iteration": 1000,
    "max_evaluation": 5000,
    "hive_size": 80,
    "max_trial": 30,
    "constrained": false,
    "criteria":
    {
        "x":
        {
            "low_bound": -3.141592653589793,
            "up_bound": 3.141592653589793,
            "type": "continuous"
        },
        "y":
        {
            "low_bound": -3.141592653589793,
            "up_bound": 3.141592653589793,
            "type": "continuous"
        }
    }
}
