{
    "epsilons": [0.005, 0.01],
    "weights": [-1, -1],
    "max_iteration": 1500,
    "max_evaluation": 25000,
    "hive_size": 80,
    "max_trial": 60,
    "constrained": true,
    "criteria":
    {
        "x1":
        {
            "low_bound": 0,
            "up_bound": 3.141592653589793,
            "type": "continuous"
        },
        "x2":
        {
            "low_bound": 0,
            "up_bound": 3.141592653589793,
            "type": "continuous"
        }
    }
}
