{
    "epsilons": [0.02, 0.02],
    "weights": [-1, -1],
    "max_iteration": 1500,
    "max_evaluation": 25000,
    "hive_size": 80,
    "max_trial": 60,
    "constrained": false,
    "criteria":
    {
        "x1":
        {
            "low_bound": 0,
            "up_bound": 1,
            "type": "continuous"
        },
        "x2":
        {
            "low_bound": 0,
            "up_bound": 1,
            "type": "continuous"
        },
        "x3":
        {
            "low_bound": 0,
            "up_bound": 1,
            "type": "continuous"
        },
        "x4":
        {
            "low_bound": 0,
            "up_bound": 1,
            "type": "continuous"
        },
        "x5":
        {
            "low_bound": 0,
            "up_bound": 1,
            "type": "continuous"
        },
        "x6":
        {
            "low_bound": 0,
            "up_bound": 1,
            "type": "continuous"
        },
        "x7":
        {
            "low_bound": 0,
            "up_bound": 1,
            "type": "continuous"
        },
        "x8":
        {
            "low_bound": 0,
            "up_bound": 1,
            "type": "continuous"
        },
        "x9":
        {
            "low_bound": 0,
            "up_bound": 1,
            "type": "continuous"
        },
        "x10":
        {
            "low_bound": 0,
            "up_bound": 1,
            "type": "continuous"
        },
        "x11":
        {
            "low_bound": 0,
            "up_bound": 1,
            "type": "continuous"
        },
        "x12":
        {
            "low_bound": 0,
            "up_bound": 1,
            "type": "continuous"
        },
        "x13":
        {
            "low_bound": 0,
            "up_bound": 1,
            "type": "continuous"
        },
        "x14":
        {
            "low_bound": 0,
            "up_bound": 1,
            "type": "continuous"
        },
        "x15":
        {
            "low_bound": 0,
            "up_bound": 1,
            "type": "continuous"
        },
        "x16":
        {
            "low_bound": 0,
            "up_bound": 1,
            "type": "continuous"
        },
        "x17":
        {
            "low_bound": 0,
            "up_bound": 1,
            "type": "continuous"
        },
        "x18":
        {
            "low_bound": 0,
            "up_bound": 1,
            "type": "continuous"
        },
        "x19":
        {
            "low_bound": 0,
            "up_bound": 1,
            "type": "continuous"
        },
        "x20":
        {
            "low_bound": 0,
            "up_bound": 1,
            "type": "continuous"
        },
        "x21":
        {
            "low_bound": 0,
            "up_bound": 1,
            "type": "continuous"
        },

        "x22":
        {
            "low_bound": 0,
            "up_bound": 1,
            "type": "continuous"
        },
        "x23":
        {
            "low_bound": 0,
            "up_bound": 1,
            "type": "continuous"
        },
        "x24":
        {
            "low_bound": 0,
            "up_bound": 1,
            "type": "continuous"
        },
        "x25":
        {
            "low_bound": 0,
            "up_bound": 1,
            "type": "continuous"
        },
        "x26":
        {
            "low_bound": 0,
            "up_bound": 1,
            "type": "continuous"
        },
        "x27":
        {
            "low_bound": 0,
            "up_bound": 1,
            "type": "continuous"
        },
        "x28":
        {
            "low_bound": 0,
            "up_bound": 1,
            "type": "continuous"
        },
        "x29":
        {
            "low_bound": 0,
            "up_bound": 1,
            "type": "continuous"
        },
        "x30":
        {
            "low_bound": 0,
            "up_bound": 1,
            "type": "continuous"
        }
    }
}
